## Autogenerated by Scribe. DO NOT MODIFY.

name: Endpoints
description: ''
endpoints:
  -
    httpMethods:
      - POST
    uri: api/login
    metadata:
      groupName: Endpoints
      groupDescription: ''
      subgroup: ''
      subgroupDescription: ''
      title: ''
      description: ''
      authenticated: false
      custom: []
    headers:
      Content-Type: application/json
      Accept: application/json
    urlParameters: []
    cleanUrlParameters: []
    queryParameters: []
    cleanQueryParameters: []
    bodyParameters: []
    cleanBodyParameters: []
    fileParameters: []
    responses: []
    responseFields: []
    auth: []
    controller: null
    method: null
    route: null
    custom: []
  -
    httpMethods:
      - GET
    uri: api/user
    metadata:
      groupName: Endpoints
      groupDescription: ''
      subgroup: ''
      subgroupDescription: ''
      title: ''
      description: ''
      authenticated: false
      custom: []
    headers:
      Content-Type: application/json
      Accept: application/json
    urlParameters: []
    cleanUrlParameters: []
    queryParameters: []
    cleanQueryParameters: []
    bodyParameters: []
    cleanBodyParameters: []
    fileParameters: []
    responses:
      -
        status: 401
        content: '{"message":"Unauthenticated."}'
        headers:
          cache-control: 'no-cache, private'
          content-type: application/json
          access-control-allow-origin: '*'
        description: null
        custom: []
    responseFields: []
    auth: []
    controller: null
    method: null
    route: null
    custom: []
  -
    httpMethods:
      - POST
    uri: api/movies
    metadata:
      groupName: Endpoints
      groupDescription: ''
      subgroup: ''
      subgroupDescription: ''
      title: 'Store a newly created resource in storage.'
      description: ''
      authenticated: false
      custom: []
    headers:
      Content-Type: application/json
      Accept: application/json
    urlParameters: []
    cleanUrlParameters: []
    queryParameters: []
    cleanQueryParameters: []
    bodyParameters: []
    cleanBodyParameters: []
    fileParameters: []
    responses: []
    responseFields: []
    auth: []
    controller: null
    method: null
    route: null
    custom: []
  -
    httpMethods:
      - PUT
      - PATCH
    uri: 'api/movies/{id}'
    metadata:
      groupName: Endpoints
      groupDescription: ''
      subgroup: ''
      subgroupDescription: ''
      title: 'Update the specified resource in storage.'
      description: ''
      authenticated: false
      custom: []
    headers:
      Content-Type: application/json
      Accept: application/json
    urlParameters:
      id:
        name: id
        description: 'The ID of the movie.'
        required: true
        example: pariatur
        type: string
        custom: []
    cleanUrlParameters:
      id: pariatur
    queryParameters: []
    cleanQueryParameters: []
    bodyParameters: []
    cleanBodyParameters: []
    fileParameters: []
    responses: []
    responseFields: []
    auth: []
    controller: null
    method: null
    route: null
    custom: []
  -
    httpMethods:
      - DELETE
    uri: 'api/movies/{id}'
    metadata:
      groupName: Endpoints
      groupDescription: ''
      subgroup: ''
      subgroupDescription: ''
      title: 'Remove the specified resource from storage.'
      description: ''
      authenticated: false
      custom: []
    headers:
      Content-Type: application/json
      Accept: application/json
    urlParameters:
      id:
        name: id
        description: 'The ID of the movie.'
        required: true
        example: esse
        type: string
        custom: []
    cleanUrlParameters:
      id: esse
    queryParameters: []
    cleanQueryParameters: []
    bodyParameters: []
    cleanBodyParameters: []
    fileParameters: []
    responses: []
    responseFields: []
    auth: []
    controller: null
    method: null
    route: null
    custom: []
  -
    httpMethods:
      - GET
    uri: api/movies
    metadata:
      groupName: Endpoints
      groupDescription: ''
      subgroup: ''
      subgroupDescription: ''
      title: 'Display a listing of the resource.'
      description: ''
      authenticated: false
      custom: []
    headers:
      Content-Type: application/json
      Accept: application/json
    urlParameters: []
    cleanUrlParameters: []
    queryParameters: []
    cleanQueryParameters: []
    bodyParameters: []
    cleanBodyParameters: []
    fileParameters: []
    responses:
      -
        status: 200
        content: '{"current_page":1,"data":[{"id":1,"title":"The Shawshank Redemption","summary":"Two imprisoned men bond over a number of years, finding solace and eventual redemption through acts of common decency.","cover_image":"https:\/\/example.com\/shawshank_redemption.jpg","genre":"Drama","author":"Frank Darabont","tags":"drama, prison, friendship","imdb_rating":"9.3","pdf":"https:\/\/example.com\/shawshank_redemption_script.pdf","created_at":"2023-08-03T10:50:57.000000Z","updated_at":"2023-08-03T10:50:57.000000Z"},{"id":2,"title":"The Godfather","summary":"The aging patriarch of an organized crime dynasty transfers control of his clandestine empire to his reluctant son.","cover_image":"https:\/\/example.com\/the_godfather.jpg","genre":"Crime, Drama","author":"Francis Ford Coppola","tags":"crime, mafia, family","imdb_rating":"9.2","pdf":"https:\/\/example.com\/the_godfather_script.pdf","created_at":"2023-08-03T10:50:57.000000Z","updated_at":"2023-08-03T10:50:57.000000Z"},{"id":3,"title":"The Dark Knight","summary":"When the menace known as The Joker emerges from his mysterious past, he wreaks havoc and chaos on the people of Gotham.","cover_image":"https:\/\/example.com\/the_dark_knight.jpg","genre":"Action, Crime, Drama","author":"Christopher Nolan","tags":"superhero, batman, crime","imdb_rating":"9.0","pdf":"https:\/\/example.com\/the_dark_knight_script.pdf","created_at":"2023-08-03T10:50:57.000000Z","updated_at":"2023-08-03T10:50:57.000000Z"},{"id":4,"title":"Pulp Fiction","summary":"The lives of two mob hitmen, a boxer, a gangster and his wife, and a pair of diner bandits intertwine in four tales of violence and redemption.","cover_image":"https:\/\/example.com\/pulp_fiction.jpg","genre":"Crime, Drama","author":"Quentin Tarantino","tags":"crime, violence, nonlinear narrative","imdb_rating":"8.9","pdf":"https:\/\/example.com\/pulp_fiction_script.pdf","created_at":"2023-08-03T10:50:57.000000Z","updated_at":"2023-08-03T10:50:57.000000Z"},{"id":5,"title":"Schindler''s List","summary":"In German-occupied Poland during World War II, Oskar Schindler gradually becomes concerned for his Jewish workforce after witnessing their persecution by the Nazis.","cover_image":"https:\/\/example.com\/schindlers_list.jpg","genre":"Biography, Drama, History","author":"Steven Spielberg","tags":"holocaust, war, historical","imdb_rating":"8.9","pdf":"https:\/\/example.com\/schindlers_list_script.pdf","created_at":"2023-08-03T10:50:57.000000Z","updated_at":"2023-08-03T10:50:57.000000Z"}],"first_page_url":"http:\/\/127.0.0.1:8000\/api\/movies?page=1","from":1,"last_page":4,"last_page_url":"http:\/\/127.0.0.1:8000\/api\/movies?page=4","links":[{"url":null,"label":"&laquo; Previous","active":false},{"url":"http:\/\/127.0.0.1:8000\/api\/movies?page=1","label":"1","active":true},{"url":"http:\/\/127.0.0.1:8000\/api\/movies?page=2","label":"2","active":false},{"url":"http:\/\/127.0.0.1:8000\/api\/movies?page=3","label":"3","active":false},{"url":"http:\/\/127.0.0.1:8000\/api\/movies?page=4","label":"4","active":false},{"url":"http:\/\/127.0.0.1:8000\/api\/movies?page=2","label":"Next &raquo;","active":false}],"next_page_url":"http:\/\/127.0.0.1:8000\/api\/movies?page=2","path":"http:\/\/127.0.0.1:8000\/api\/movies","per_page":5,"prev_page_url":null,"to":5,"total":18}'
        headers:
          cache-control: 'no-cache, private'
          content-type: application/json
          x-ratelimit-limit: '60'
          x-ratelimit-remaining: '59'
          access-control-allow-origin: '*'
        description: null
        custom: []
    responseFields: []
    auth: []
    controller: null
    method: null
    route: null
    custom: []
  -
    httpMethods:
      - GET
    uri: 'api/movies/{movie}'
    metadata:
      groupName: Endpoints
      groupDescription: ''
      subgroup: ''
      subgroupDescription: ''
      title: 'Display the specified resource.'
      description: ''
      authenticated: false
      custom: []
    headers:
      Content-Type: application/json
      Accept: application/json
    urlParameters:
      movie:
        name: movie
        description: 'The movie.'
        required: true
        example: 1
        type: integer
        custom: []
    cleanUrlParameters:
      movie: 1
    queryParameters: []
    cleanQueryParameters: []
    bodyParameters: []
    cleanBodyParameters: []
    fileParameters: []
    responses:
      -
        status: 200
        content: '{"movie":{"id":1,"title":"The Shawshank Redemption","summary":"Two imprisoned men bond over a number of years, finding solace and eventual redemption through acts of common decency.","cover_image":"https:\/\/example.com\/shawshank_redemption.jpg","genre":"Drama","author":"Frank Darabont","tags":"drama, prison, friendship","imdb_rating":"9.3","pdf":"https:\/\/example.com\/shawshank_redemption_script.pdf","created_at":"2023-08-03T10:50:57.000000Z","updated_at":"2023-08-03T10:50:57.000000Z","comments":[{"id":1,"movie_id":1,"email":"usera@email.com","comment_text":"This movie is fantastic!","created_at":"2023-08-03T10:50:58.000000Z","updated_at":"2023-08-03T10:50:58.000000Z"},{"id":2,"movie_id":1,"email":"userb@email.com","comment_text":"One of the best movies I have ever seen.","created_at":"2023-08-03T10:50:58.000000Z","updated_at":"2023-08-03T10:50:58.000000Z"},{"id":4,"movie_id":1,"email":"userd@email.com","comment_text":"Great Movie!","created_at":"2023-08-03T11:07:46.000000Z","updated_at":"2023-08-03T11:07:46.000000Z"}]},"related_movies":[{"id":7,"title":"Fight Club","summary":"An insomniac office worker and a devil-may-care soapmaker form an underground fight club that evolves into something much, much more.","cover_image":"https:\/\/example.com\/fight_club.jpg","genre":"Drama","author":"David Fincher","tags":"drama, psychological, anarchy","imdb_rating":"8.8","pdf":"https:\/\/example.com\/fight_club_script.pdf","created_at":"2023-08-03T10:50:57.000000Z","updated_at":"2023-08-03T10:50:57.000000Z"}]}'
        headers:
          cache-control: 'no-cache, private'
          content-type: application/json
          x-ratelimit-limit: '60'
          x-ratelimit-remaining: '58'
          access-control-allow-origin: '*'
        description: null
        custom: []
    responseFields: []
    auth: []
    controller: null
    method: null
    route: null
    custom: []
  -
    httpMethods:
      - POST
    uri: 'api/comment/{movie}'
    metadata:
      groupName: Endpoints
      groupDescription: ''
      subgroup: ''
      subgroupDescription: ''
      title: ''
      description: ''
      authenticated: false
      custom: []
    headers:
      Content-Type: application/json
      Accept: application/json
    urlParameters:
      movie:
        name: movie
        description: ''
        required: true
        example: aperiam
        type: string
        custom: []
    cleanUrlParameters:
      movie: aperiam
    queryParameters: []
    cleanQueryParameters: []
    bodyParameters:
      email:
        name: email
        description: 'Must be a valid email address.'
        required: true
        example: fletcher08@example.net
        type: string
        custom: []
      comment_text:
        name: comment_text
        description: ''
        required: true
        example: consequatur
        type: string
        custom: []
    cleanBodyParameters:
      email: fletcher08@example.net
      comment_text: consequatur
    fileParameters: []
    responses: []
    responseFields: []
    auth: []
    controller: null
    method: null
    route: null
    custom: []
